{
    "name": "root",
    "metadata": {
        "timer_format_version": "0.1.0",
        "start_time_seconds": "1633007296",
        "python_version": "3.9.7 (tags/v3.9.7:1016ef3, Aug 30 2021, 20:19:38) [MSC v.1929 64 bit (AMD64)]",
        "command_line_arguments": "C:\\Users\\kelvi\\python-envs\\sample-env\\Scripts\\mlagents-learn Assets/config/snakemultiple_config.yaml --run-id=timerFoodEatenChange",
        "mlagents_version": "0.27.0",
        "mlagents_envs_version": "0.27.0",
        "communication_protocol_version": "1.5.0",
        "pytorch_version": "1.7.1+cu110",
        "numpy_version": "1.19.5",
        "end_time_seconds": "1633007420"
    },
    "total": 124.2352413,
    "count": 1,
    "self": 0.011729399999978796,
    "children": {
        "run_training.setup": {
            "total": 0.35948000000000135,
            "count": 1,
            "self": 0.35948000000000135
        },
        "TrainerController.start_learning": {
            "total": 123.86403190000001,
            "count": 1,
            "self": 0.07926520000034998,
            "children": {
                "TrainerController._reset_env": {
                    "total": 29.0757229,
                    "count": 1,
                    "self": 29.0757229
                },
                "TrainerController.advance": {
                    "total": 92.87241809999968,
                    "count": 3746,
                    "self": 0.07416259999904184,
                    "children": {
                        "env_step": {
                            "total": 80.34492430000076,
                            "count": 3746,
                            "self": 51.242688900001646,
                            "children": {
                                "SubprocessEnvManager._take_step": {
                                    "total": 29.055621799999436,
                                    "count": 3746,
                                    "self": 0.522828200000248,
                                    "children": {
                                        "TorchPolicy.evaluate": {
                                            "total": 28.532793599999188,
                                            "count": 7474,
                                            "self": 11.941417599999497,
                                            "children": {
                                                "TorchPolicy.sample_actions": {
                                                    "total": 16.59137599999969,
                                                    "count": 7474,
                                                    "self": 16.59137599999969
                                                }
                                            }
                                        }
                                    }
                                },
                                "workers": {
                                    "total": 0.04661359999967374,
                                    "count": 3745,
                                    "self": 0.0,
                                    "children": {
                                        "worker_root": {
                                            "total": 110.29364190000014,
                                            "count": 3745,
                                            "is_parallel": true,
                                            "self": 63.42023669999992,
                                            "children": {
                                                "steps_from_proto": {
                                                    "total": 0.004493300000000033,
                                                    "count": 2,
                                                    "is_parallel": true,
                                                    "self": 0.001386600000001792,
                                                    "children": {
                                                        "_process_rank_one_or_two_observation": {
                                                            "total": 0.0031066999999982414,
                                                            "count": 4,
                                                            "is_parallel": true,
                                                            "self": 0.0031066999999982414
                                                        }
                                                    }
                                                },
                                                "UnityEnvironment.step": {
                                                    "total": 46.86891190000022,
                                                    "count": 3745,
                                                    "is_parallel": true,
                                                    "self": 0.378964100001177,
                                                    "children": {
                                                        "UnityEnvironment._generate_step_input": {
                                                            "total": 0.38800709999972227,
                                                            "count": 3745,
                                                            "is_parallel": true,
                                                            "self": 0.38800709999972227
                                                        },
                                                        "communicator.exchange": {
                                                            "total": 44.578316199999875,
                                                            "count": 3745,
                                                            "is_parallel": true,
                                                            "self": 44.578316199999875
                                                        },
                                                        "steps_from_proto": {
                                                            "total": 1.5236244999994462,
                                                            "count": 7490,
                                                            "is_parallel": true,
                                                            "self": 0.9719477999987411,
                                                            "children": {
                                                                "_process_rank_one_or_two_observation": {
                                                                    "total": 0.551676700000705,
                                                                    "count": 14980,
                                                                    "is_parallel": true,
                                                                    "self": 0.551676700000705
                                                                }
                                                            }
                                                        }
                                                    }
                                                }
                                            }
                                        }
                                    }
                                }
                            }
                        },
                        "trainer_advance": {
                            "total": 12.453331199999873,
                            "count": 3745,
                            "self": 0.25953990000012794,
                            "children": {
                                "process_trajectory": {
                                    "total": 0.3353724999997425,
                                    "count": 3745,
                                    "self": 0.3353724999997425
                                },
                                "_update_policy": {
                                    "total": 11.858418800000003,
                                    "count": 29,
                                    "self": 0.7076603999995328,
                                    "children": {
                                        "TorchPPOOptimizer.update": {
                                            "total": 11.15075840000047,
                                            "count": 1053,
                                            "self": 11.15075840000047
                                        }
                                    }
                                }
                            }
                        }
                    }
                },
                "trainer_threads": {
                    "total": 9.000000034120603e-07,
                    "count": 1,
                    "self": 9.000000034120603e-07
                },
                "TrainerController._save_models": {
                    "total": 1.8366247999999814,
                    "count": 1,
                    "self": 0.010677199999975073,
                    "children": {
                        "RLTrainer._checkpoint": {
                            "total": 1.8259476000000063,
                            "count": 1,
                            "self": 1.8259476000000063
                        }
                    }
                }
            }
        }
    }
}