{
    "name": "root",
    "metadata": {
        "timer_format_version": "0.1.0",
        "start_time_seconds": "1632306206",
        "python_version": "3.9.7 (tags/v3.9.7:1016ef3, Aug 30 2021, 20:19:38) [MSC v.1929 64 bit (AMD64)]",
        "command_line_arguments": "C:\\Users\\kelvi\\python-envs\\sample-env\\Scripts\\mlagents-learn config/snake_config.yaml --run-id=Snake08 --force",
        "mlagents_version": "0.27.0",
        "mlagents_envs_version": "0.27.0",
        "communication_protocol_version": "1.5.0",
        "pytorch_version": "1.7.1+cu110",
        "numpy_version": "1.19.5",
        "end_time_seconds": "1632306267"
    },
    "total": 61.1316587,
    "count": 1,
    "self": 0.005860300000001928,
    "children": {
        "run_training.setup": {
            "total": 0.14704589999999995,
            "count": 1,
            "self": 0.14704589999999995
        },
        "TrainerController.start_learning": {
            "total": 60.9787525,
            "count": 1,
            "self": 0.08672700000013833,
            "children": {
                "TrainerController._reset_env": {
                    "total": 11.9087028,
                    "count": 1,
                    "self": 11.9087028
                },
                "TrainerController.advance": {
                    "total": 48.351459499999855,
                    "count": 4481,
                    "self": 0.08399879999987547,
                    "children": {
                        "env_step": {
                            "total": 37.962412299999905,
                            "count": 4481,
                            "self": 28.87529359999977,
                            "children": {
                                "SubprocessEnvManager._take_step": {
                                    "total": 9.033779000000019,
                                    "count": 4481,
                                    "self": 0.25902690000000206,
                                    "children": {
                                        "TorchPolicy.evaluate": {
                                            "total": 8.774752100000017,
                                            "count": 4471,
                                            "self": 3.867407299999737,
                                            "children": {
                                                "TorchPolicy.sample_actions": {
                                                    "total": 4.9073448000002795,
                                                    "count": 4471,
                                                    "self": 4.9073448000002795
                                                }
                                            }
                                        }
                                    }
                                },
                                "workers": {
                                    "total": 0.0533397000001159,
                                    "count": 4480,
                                    "self": 0.0,
                                    "children": {
                                        "worker_root": {
                                            "total": 51.14312809999985,
                                            "count": 4480,
                                            "is_parallel": true,
                                            "self": 26.13675959999989,
                                            "children": {
                                                "steps_from_proto": {
                                                    "total": 0.0003010000000003288,
                                                    "count": 1,
                                                    "is_parallel": true,
                                                    "self": 0.0001632000000011402,
                                                    "children": {
                                                        "_process_rank_one_or_two_observation": {
                                                            "total": 0.00013779999999918857,
                                                            "count": 2,
                                                            "is_parallel": true,
                                                            "self": 0.00013779999999918857
                                                        }
                                                    }
                                                },
                                                "UnityEnvironment.step": {
                                                    "total": 25.006067499999958,
                                                    "count": 4480,
                                                    "is_parallel": true,
                                                    "self": 0.30666089999989055,
                                                    "children": {
                                                        "UnityEnvironment._generate_step_input": {
                                                            "total": 0.26459850000001595,
                                                            "count": 4480,
                                                            "is_parallel": true,
                                                            "self": 0.26459850000001595
                                                        },
                                                        "communicator.exchange": {
                                                            "total": 23.678593500000126,
                                                            "count": 4480,
                                                            "is_parallel": true,
                                                            "self": 23.678593500000126
                                                        },
                                                        "steps_from_proto": {
                                                            "total": 0.7562145999999252,
                                                            "count": 4480,
                                                            "is_parallel": true,
                                                            "self": 0.3616614000001306,
                                                            "children": {
                                                                "_process_rank_one_or_two_observation": {
                                                                    "total": 0.39455319999979466,
                                                                    "count": 8960,
                                                                    "is_parallel": true,
                                                                    "self": 0.39455319999979466
                                                                }
                                                            }
                                                        }
                                                    }
                                                }
                                            }
                                        }
                                    }
                                }
                            }
                        },
                        "trainer_advance": {
                            "total": 10.305048400000077,
                            "count": 4480,
                            "self": 0.10381420000026864,
                            "children": {
                                "process_trajectory": {
                                    "total": 0.3788073999998005,
                                    "count": 4480,
                                    "self": 0.3788073999998005
                                },
                                "_update_policy": {
                                    "total": 9.822426800000008,
                                    "count": 36,
                                    "self": 0.7526926000000476,
                                    "children": {
                                        "TorchPPOOptimizer.update": {
                                            "total": 9.06973419999996,
                                            "count": 1260,
                                            "self": 9.06973419999996
                                        }
                                    }
                                }
                            }
                        }
                    }
                },
                "trainer_threads": {
                    "total": 1.00000000458067e-06,
                    "count": 1,
                    "self": 1.00000000458067e-06
                },
                "TrainerController._save_models": {
                    "total": 0.6318622000000005,
                    "count": 1,
                    "self": 0.010680400000005363,
                    "children": {
                        "RLTrainer._checkpoint": {
                            "total": 0.6211817999999951,
                            "count": 1,
                            "self": 0.6211817999999951
                        }
                    }
                }
            }
        }
    }
}