{
    "Snake": {
        "elo": 1199.502861690798,
        "checkpoints": [
            {
                "steps": 2028,
                "file_path": "results\\timerFoodEatenChange02\\Snake\\Snake-2028.onnx",
                "reward": null,
                "creation_time": 1633007554.966646,
                "auxillary_file_paths": [
                    "results\\timerFoodEatenChange02\\Snake\\Snake-2028.pt"
                ]
            }
        ],
        "final_checkpoint": {
            "steps": 2028,
            "file_path": "results\\timerFoodEatenChange02\\Snake.onnx",
            "reward": null,
            "creation_time": 1633007554.966646,
            "auxillary_file_paths": [
                "results\\timerFoodEatenChange02\\Snake\\Snake-2028.pt"
            ]
        }
    },
    "metadata": {
        "stats_format_version": "0.3.0",
        "mlagents_version": "0.27.0",
        "torch_version": "1.7.1+cu110"
    }
}