{
    "Snake": {
        "checkpoints": [
            {
                "steps": 79787,
                "file_path": "results\\Snake\\Snake\\Snake-79787.onnx",
                "reward": null,
                "creation_time": 1632261316.4210815,
                "auxillary_file_paths": [
                    "results\\Snake\\Snake\\Snake-79787.pt"
                ]
            }
        ],
        "final_checkpoint": {
            "steps": 79787,
            "file_path": "results\\Snake\\Snake.onnx",
            "reward": null,
            "creation_time": 1632261316.4210815,
            "auxillary_file_paths": [
                "results\\Snake\\Snake\\Snake-79787.pt"
            ]
        }
    },
    "metadata": {
        "stats_format_version": "0.3.0",
        "mlagents_version": "0.27.0",
        "torch_version": "1.7.1+cu110"
    }
}