{
    "Snake": {
        "checkpoints": [
            {
                "steps": 25905,
                "file_path": "results\\Snake07\\Snake\\Snake-25905.onnx",
                "reward": null,
                "creation_time": 1632306168.7792602,
                "auxillary_file_paths": [
                    "results\\Snake07\\Snake\\Snake-25905.pt"
                ]
            }
        ],
        "final_checkpoint": {
            "steps": 25905,
            "file_path": "results\\Snake07\\Snake.onnx",
            "reward": null,
            "creation_time": 1632306168.7792602,
            "auxillary_file_paths": [
                "results\\Snake07\\Snake\\Snake-25905.pt"
            ]
        }
    },
    "metadata": {
        "stats_format_version": "0.3.0",
        "mlagents_version": "0.27.0",
        "torch_version": "1.7.1+cu110"
    }
}