{
    "name": "root",
    "metadata": {
        "timer_format_version": "0.1.0",
        "start_time_seconds": "1632305208",
        "python_version": "3.9.7 (tags/v3.9.7:1016ef3, Aug 30 2021, 20:19:38) [MSC v.1929 64 bit (AMD64)]",
        "command_line_arguments": "C:\\Users\\kelvi\\python-envs\\sample-env\\Scripts\\mlagents-learn config/snake_config.yaml --run-id=Snake05 --force",
        "mlagents_version": "0.27.0",
        "mlagents_envs_version": "0.27.0",
        "communication_protocol_version": "1.5.0",
        "pytorch_version": "1.7.1+cu110",
        "numpy_version": "1.19.5",
        "end_time_seconds": "1632305302"
    },
    "total": 93.6051097,
    "count": 1,
    "self": 0.006854099999998198,
    "children": {
        "run_training.setup": {
            "total": 0.14334389999999986,
            "count": 1,
            "self": 0.14334389999999986
        },
        "TrainerController.start_learning": {
            "total": 93.4549117,
            "count": 1,
            "self": 0.11965619999999433,
            "children": {
                "TrainerController._reset_env": {
                    "total": 25.0737592,
                    "count": 1,
                    "self": 25.0737592
                },
                "TrainerController.advance": {
                    "total": 67.6012514,
                    "count": 6400,
                    "self": 0.12058459999968818,
                    "children": {
                        "env_step": {
                            "total": 52.823801600000024,
                            "count": 6400,
                            "self": 40.11927919999976,
                            "children": {
                                "SubprocessEnvManager._take_step": {
                                    "total": 12.627575400000108,
                                    "count": 6400,
                                    "self": 0.36397340000007006,
                                    "children": {
                                        "TorchPolicy.evaluate": {
                                            "total": 12.263602000000038,
                                            "count": 6382,
                                            "self": 5.521883500001167,
                                            "children": {
                                                "TorchPolicy.sample_actions": {
                                                    "total": 6.741718499998871,
                                                    "count": 6382,
                                                    "self": 6.741718499998871
                                                }
                                            }
                                        }
                                    }
                                },
                                "workers": {
                                    "total": 0.07694700000015686,
                                    "count": 6399,
                                    "self": 0.0,
                                    "children": {
                                        "worker_root": {
                                            "total": 70.28232720000057,
                                            "count": 6399,
                                            "is_parallel": true,
                                            "self": 35.639464600001034,
                                            "children": {
                                                "steps_from_proto": {
                                                    "total": 0.0002463000000005877,
                                                    "count": 1,
                                                    "is_parallel": true,
                                                    "self": 9.599999999920783e-05,
                                                    "children": {
                                                        "_process_rank_one_or_two_observation": {
                                                            "total": 0.00015030000000137989,
                                                            "count": 2,
                                                            "is_parallel": true,
                                                            "self": 0.00015030000000137989
                                                        }
                                                    }
                                                },
                                                "UnityEnvironment.step": {
                                                    "total": 34.64261629999953,
                                                    "count": 6399,
                                                    "is_parallel": true,
                                                    "self": 0.4322113999990833,
                                                    "children": {
                                                        "UnityEnvironment._generate_step_input": {
                                                            "total": 0.3705530000003492,
                                                            "count": 6399,
                                                            "is_parallel": true,
                                                            "self": 0.3705530000003492
                                                        },
                                                        "communicator.exchange": {
                                                            "total": 32.78044810000047,
                                                            "count": 6399,
                                                            "is_parallel": true,
                                                            "self": 32.78044810000047
                                                        },
                                                        "steps_from_proto": {
                                                            "total": 1.0594037999996289,
                                                            "count": 6399,
                                                            "is_parallel": true,
                                                            "self": 0.5043092999992886,
                                                            "children": {
                                                                "_process_rank_one_or_two_observation": {
                                                                    "total": 0.5550945000003402,
                                                                    "count": 12798,
                                                                    "is_parallel": true,
                                                                    "self": 0.5550945000003402
                                                                }
                                                            }
                                                        }
                                                    }
                                                }
                                            }
                                        }
                                    }
                                }
                            }
                        },
                        "trainer_advance": {
                            "total": 14.656865200000286,
                            "count": 6399,
                            "self": 0.14484530000022744,
                            "children": {
                                "process_trajectory": {
                                    "total": 0.5236946000000415,
                                    "count": 6399,
                                    "self": 0.5236946000000415
                                },
                                "_update_policy": {
                                    "total": 13.988325300000017,
                                    "count": 51,
                                    "self": 1.0692206000000688,
                                    "children": {
                                        "TorchPPOOptimizer.update": {
                                            "total": 12.919104699999949,
                                            "count": 1803,
                                            "self": 12.919104699999949
                                        }
                                    }
                                }
                            }
                        }
                    }
                },
                "trainer_threads": {
                    "total": 9.999999974752427e-07,
                    "count": 1,
                    "self": 9.999999974752427e-07
                },
                "TrainerController._save_models": {
                    "total": 0.6602439000000118,
                    "count": 1,
                    "self": 0.010205300000009743,
                    "children": {
                        "RLTrainer._checkpoint": {
                            "total": 0.650038600000002,
                            "count": 1,
                            "self": 0.650038600000002
                        }
                    }
                }
            }
        }
    }
}