{
    "Snake": {
        "elo": 1200.0,
        "checkpoints": [
            {
                "steps": 43200,
                "file_path": "results\\mulSnakes\\Snake\\Snake-43200.onnx",
                "reward": null,
                "creation_time": 1632945338.9443686,
                "auxillary_file_paths": [
                    "results\\mulSnakes\\Snake\\Snake-43200.pt"
                ]
            }
        ],
        "final_checkpoint": {
            "steps": 43200,
            "file_path": "results\\mulSnakes\\Snake.onnx",
            "reward": null,
            "creation_time": 1632945338.9443686,
            "auxillary_file_paths": [
                "results\\mulSnakes\\Snake\\Snake-43200.pt"
            ]
        }
    },
    "metadata": {
        "stats_format_version": "0.3.0",
        "mlagents_version": "0.27.0",
        "torch_version": "1.7.1+cu110"
    }
}