{
    "name": "root",
    "gauges": {
        "Snake.Policy.Entropy.mean": {
            "value": 0.5663306713104248,
            "min": 0.5648000240325928,
            "max": 1.392759084701538,
            "count": 50
        },
        "Snake.Policy.Entropy.sum": {
            "value": 5687.0927734375,
            "min": 5635.2216796875,
            "max": 13945.697265625,
            "count": 50
        },
        "Snake.Step.mean": {
            "value": 499988.0,
            "min": 9949.0,
            "max": 499988.0,
            "count": 50
        },
        "Snake.Step.sum": {
            "value": 499988.0,
            "min": 9949.0,
            "max": 499988.0,
            "count": 50
        },
        "Snake.Policy.ExtrinsicValueEstimate.mean": {
            "value": 179.59719848632812,
            "min": -266.39215087890625,
            "max": 182.13743591308594,
            "count": 50
        },
        "Snake.Policy.ExtrinsicValueEstimate.sum": {
            "value": 29453.94140625,
            "min": -44221.09765625,
            "max": 30052.677734375,
            "count": 50
        },
        "Snake.Losses.PolicyLoss.mean": {
            "value": 0.24371019265854352,
            "min": 0.2379280706282447,
            "max": 0.24996695996113152,
            "count": 50
        },
        "Snake.Losses.PolicyLoss.sum": {
            "value": 19.740525605342025,
            "min": 18.69350226368859,
            "max": 20.53729826387912,
            "count": 50
        },
        "Snake.Losses.ValueLoss.mean": {
            "value": 12462.10367316935,
            "min": 4601.056059107294,
            "max": 17545.470032178575,
            "count": 50
        },
        "Snake.Losses.ValueLoss.sum": {
            "value": 1009430.3975267173,
            "min": 381887.6529059054,
            "max": 1456274.0126708217,
            "count": 50
        },
        "Snake.Policy.LearningRate.mean": {
            "value": 3.015291587528396e-06,
            "min": 3.015291587528396e-06,
            "max": 0.0002969580973102641,
            "count": 50
        },
        "Snake.Policy.LearningRate.sum": {
            "value": 0.00024423861858980007,
            "min": 0.00024423861858980007,
            "max": 0.0241521656492782,
            "count": 50
        },
        "Snake.Policy.Epsilon.mean": {
            "value": 0.10100506419753087,
            "min": 0.10100506419753087,
            "max": 0.1989860320987654,
            "count": 50
        },
        "Snake.Policy.Epsilon.sum": {
            "value": 8.1814102,
            "min": 8.033313999999999,
            "max": 16.350721800000002,
            "count": 50
        },
        "Snake.Policy.Beta.mean": {
            "value": 1.4924814567901237e-05,
            "min": 1.4924814567901237e-05,
            "max": 0.0004950315572839507,
            "count": 50
        },
        "Snake.Policy.Beta.sum": {
            "value": 0.0012089099800000002,
            "min": 0.0012089099800000002,
            "max": 0.040278536819999995,
            "count": 50
        },
        "Snake.Environment.EpisodeLength.mean": {
            "value": 449.6363636363636,
            "min": 300.6470588235294,
            "max": 905.8181818181819,
            "count": 50
        },
        "Snake.Environment.EpisodeLength.sum": {
            "value": 9892.0,
            "min": 9068.0,
            "max": 11217.0,
            "count": 50
        },
        "Snake.Environment.CumulativeReward.mean": {
            "value": 1731.4124939658425,
            "min": -1141.787731286251,
            "max": 2367.5189431997446,
            "count": 50
        },
        "Snake.Environment.CumulativeReward.sum": {
            "value": 38091.074867248535,
            "min": -37678.99513244629,
            "max": 47059.06496214867,
            "count": 50
        },
        "Snake.Policy.ExtrinsicReward.mean": {
            "value": 1731.4124939658425,
            "min": -1141.787731286251,
            "max": 2367.5189431997446,
            "count": 50
        },
        "Snake.Policy.ExtrinsicReward.sum": {
            "value": 38091.074867248535,
            "min": -37678.99513244629,
            "max": 47059.06496214867,
            "count": 50
        },
        "Snake.IsTraining.mean": {
            "value": 1.0,
            "min": 1.0,
            "max": 1.0,
            "count": 50
        },
        "Snake.IsTraining.sum": {
            "value": 1.0,
            "min": 1.0,
            "max": 1.0,
            "count": 50
        }
    },
    "metadata": {
        "timer_format_version": "0.1.0",
        "start_time_seconds": "1632307572",
        "python_version": "3.9.7 (tags/v3.9.7:1016ef3, Aug 30 2021, 20:19:38) [MSC v.1929 64 bit (AMD64)]",
        "command_line_arguments": "C:\\Users\\kelvi\\python-envs\\sample-env\\Scripts\\mlagents-learn config/snake_config.yaml --run-id=Snake10 --force",
        "mlagents_version": "0.27.0",
        "mlagents_envs_version": "0.27.0",
        "communication_protocol_version": "1.5.0",
        "pytorch_version": "1.7.1+cu110",
        "numpy_version": "1.19.5",
        "end_time_seconds": "1632314349"
    },
    "total": 6776.668531,
    "count": 1,
    "self": 0.026996100000360457,
    "children": {
        "run_training.setup": {
            "total": 0.15365570000000006,
            "count": 1,
            "self": 0.15365570000000006
        },
        "TrainerController.start_learning": {
            "total": 6776.4878792,
            "count": 1,
            "self": 9.990231500122718,
            "children": {
                "TrainerController._reset_env": {
                    "total": 13.365453800000001,
                    "count": 1,
                    "self": 13.365453800000001
                },
                "TrainerController.advance": {
                    "total": 6753.090959699877,
                    "count": 501296,
                    "self": 9.527123899873914,
                    "children": {
                        "env_step": {
                            "total": 5550.456565800264,
                            "count": 501296,
                            "self": 4555.73903630025,
                            "children": {
                                "SubprocessEnvManager._take_step": {
                                    "total": 988.3624436998555,
                                    "count": 501296,
                                    "self": 29.321566099868278,
                                    "children": {
                                        "TorchPolicy.evaluate": {
                                            "total": 959.0408775999872,
                                            "count": 500052,
                                            "self": 441.3128556000497,
                                            "children": {
                                                "TorchPolicy.sample_actions": {
                                                    "total": 517.7280219999375,
                                                    "count": 500052,
                                                    "self": 517.7280219999375
                                                }
                                            }
                                        }
                                    }
                                },
                                "workers": {
                                    "total": 6.355085800158436,
                                    "count": 501296,
                                    "self": 0.0,
                                    "children": {
                                        "worker_root": {
                                            "total": 6751.21807299996,
                                            "count": 501296,
                                            "is_parallel": true,
                                            "self": 2639.1823059000562,
                                            "children": {
                                                "steps_from_proto": {
                                                    "total": 0.0001973999999993481,
                                                    "count": 1,
                                                    "is_parallel": true,
                                                    "self": 9.039999999949089e-05,
                                                    "children": {
                                                        "_process_rank_one_or_two_observation": {
                                                            "total": 0.00010699999999985721,
                                                            "count": 2,
                                                            "is_parallel": true,
                                                            "self": 0.00010699999999985721
                                                        }
                                                    }
                                                },
                                                "UnityEnvironment.step": {
                                                    "total": 4112.035569699904,
                                                    "count": 501296,
                                                    "is_parallel": true,
                                                    "self": 34.909283900273294,
                                                    "children": {
                                                        "UnityEnvironment._generate_step_input": {
                                                            "total": 30.926785300032325,
                                                            "count": 501296,
                                                            "is_parallel": true,
                                                            "self": 30.926785300032325
                                                        },
                                                        "communicator.exchange": {
                                                            "total": 3961.4198763998047,
                                                            "count": 501296,
                                                            "is_parallel": true,
                                                            "self": 3961.4198763998047
                                                        },
                                                        "steps_from_proto": {
                                                            "total": 84.77962409979347,
                                                            "count": 501296,
                                                            "is_parallel": true,
                                                            "self": 40.05270949992415,
                                                            "children": {
                                                                "_process_rank_one_or_two_observation": {
                                                                    "total": 44.72691459986932,
                                                                    "count": 1002592,
                                                                    "is_parallel": true,
                                                                    "self": 44.72691459986932
                                                                }
                                                            }
                                                        }
                                                    }
                                                }
                                            }
                                        }
                                    }
                                }
                            }
                        },
                        "trainer_advance": {
                            "total": 1193.1072699997394,
                            "count": 501296,
                            "self": 11.605056199789033,
                            "children": {
                                "process_trajectory": {
                                    "total": 42.785422799952116,
                                    "count": 501296,
                                    "self": 40.740974499952,
                                    "children": {
                                        "RLTrainer._checkpoint": {
                                            "total": 2.044448300000113,
                                            "count": 1,
                                            "self": 2.044448300000113
                                        }
                                    }
                                },
                                "_update_policy": {
                                    "total": 1138.7167909999982,
                                    "count": 4031,
                                    "self": 88.01198979993774,
                                    "children": {
                                        "TorchPPOOptimizer.update": {
                                            "total": 1050.7048012000605,
                                            "count": 142044,
                                            "self": 1050.7048012000605
                                        }
                                    }
                                }
                            }
                        }
                    }
                },
                "trainer_threads": {
                    "total": 1.100000190490391e-06,
                    "count": 1,
                    "self": 1.100000190490391e-06
                },
                "TrainerController._save_models": {
                    "total": 0.041233099999772094,
                    "count": 1,
                    "self": 0.005706599999939499,
                    "children": {
                        "RLTrainer._checkpoint": {
                            "total": 0.035526499999832595,
                            "count": 1,
                            "self": 0.035526499999832595
                        }
                    }
                }
            }
        }
    }
}