{
    "name": "root",
    "gauges": {
        "Snake.Policy.Entropy.mean": {
            "value": 2.8414745330810547,
            "min": 2.7772343158721924,
            "max": 3.0021109580993652,
            "count": 8
        },
        "Snake.Policy.Entropy.sum": {
            "value": 56960.19921875,
            "min": 55500.25,
            "max": 60318.4140625,
            "count": 8
        },
        "Snake.Step.mean": {
            "value": 79978.0,
            "min": 9982.0,
            "max": 79978.0,
            "count": 8
        },
        "Snake.Step.sum": {
            "value": 79978.0,
            "min": 9982.0,
            "max": 79978.0,
            "count": 8
        },
        "Snake.Policy.ExtrinsicValueEstimate.mean": {
            "value": -66.53668975830078,
            "min": -111.05997467041016,
            "max": -28.843727111816406,
            "count": 8
        },
        "Snake.Policy.ExtrinsicValueEstimate.sum": {
            "value": -11111.626953125,
            "min": -18213.8359375,
            "max": -4759.21484375,
            "count": 8
        },
        "Snake.Losses.PolicyLoss.mean": {
            "value": 0.24538739994712125,
            "min": 0.24037111587592003,
            "max": 0.24936435666657725,
            "count": 8
        },
        "Snake.Losses.PolicyLoss.sum": {
            "value": 20.367154195611064,
            "min": 19.43054606010763,
            "max": 20.447877246659335,
            "count": 8
        },
        "Snake.Losses.ValueLoss.mean": {
            "value": 586.9935632254419,
            "min": 586.9935632254419,
            "max": 1574.453319557229,
            "count": 8
        },
        "Snake.Losses.ValueLoss.sum": {
            "value": 48720.46574771168,
            "min": 47808.89100125292,
            "max": 129105.17220369277,
            "count": 8
        },
        "Snake.Policy.LearningRate.mean": {
            "value": 0.0002549792535611373,
            "min": 0.0002549792535611373,
            "max": 0.00029694486177787345,
            "count": 8
        },
        "Snake.Policy.LearningRate.sum": {
            "value": 0.021163278045574396,
            "min": 0.021163278045574396,
            "max": 0.023458644080452003,
            "count": 8
        },
        "Snake.Policy.Epsilon.mean": {
            "value": 0.18499307951807228,
            "min": 0.18499307951807228,
            "max": 0.19898162025316457,
            "count": 8
        },
        "Snake.Policy.Epsilon.sum": {
            "value": 15.354425599999999,
            "min": 15.279452800000001,
            "max": 15.794316000000002,
            "count": 8
        },
        "Snake.Policy.Beta.mean": {
            "value": 0.0004264660896385543,
            "min": 0.0004264660896385543,
            "max": 0.0004950099392405063,
            "count": 8
        },
        "Snake.Policy.Beta.sum": {
            "value": 0.035396685440000006,
            "min": 0.035396685440000006,
            "max": 0.03910578519999999,
            "count": 8
        },
        "Snake.Environment.EpisodeLength.mean": {
            "value": 312.21875,
            "min": 312.21875,
            "max": 427.4347826086956,
            "count": 8
        },
        "Snake.Environment.EpisodeLength.sum": {
            "value": 9991.0,
            "min": 9831.0,
            "max": 10089.0,
            "count": 8
        },
        "Snake.Self-play.ELO.mean": {
            "value": 1149.631878448427,
            "min": 1149.631878448427,
            "max": 1198.7852937025914,
            "count": 8
        },
        "Snake.Self-play.ELO.sum": {
            "value": 36788.22011034966,
            "min": 27572.061755159604,
            "max": 36788.22011034966,
            "count": 8
        },
        "Snake.Environment.CumulativeReward.mean": {
            "value": -276.74422029568814,
            "min": -547.4862612187862,
            "max": -128.64652890077343,
            "count": 8
        },
        "Snake.Environment.CumulativeReward.sum": {
            "value": -8855.81504946202,
            "min": -13687.156530469656,
            "max": -3473.456280320883,
            "count": 8
        },
        "Snake.Policy.ExtrinsicReward.mean": {
            "value": -276.74422029568814,
            "min": -547.4862612187862,
            "max": -128.64652890077343,
            "count": 8
        },
        "Snake.Policy.ExtrinsicReward.sum": {
            "value": -8855.81504946202,
            "min": -13687.156530469656,
            "max": -3473.456280320883,
            "count": 8
        },
        "Snake.IsTraining.mean": {
            "value": 1.0,
            "min": 1.0,
            "max": 1.0,
            "count": 8
        },
        "Snake.IsTraining.sum": {
            "value": 1.0,
            "min": 1.0,
            "max": 1.0,
            "count": 8
        }
    },
    "metadata": {
        "timer_format_version": "0.1.0",
        "start_time_seconds": "1632951511",
        "python_version": "3.9.7 (tags/v3.9.7:1016ef3, Aug 30 2021, 20:19:38) [MSC v.1929 64 bit (AMD64)]",
        "command_line_arguments": "C:\\Users\\kelvi\\python-envs\\sample-env\\Scripts\\mlagents-learn Assets/config/snakemultiple_config.yaml --run-id=mulSnakesTest01",
        "mlagents_version": "0.27.0",
        "mlagents_envs_version": "0.27.0",
        "communication_protocol_version": "1.5.0",
        "pytorch_version": "1.7.1+cu110",
        "numpy_version": "1.19.5",
        "end_time_seconds": "1632953964"
    },
    "total": 2452.2395552000003,
    "count": 1,
    "self": 0.008658100000047853,
    "children": {
        "run_training.setup": {
            "total": 0.2799316000000003,
            "count": 1,
            "self": 0.2799316000000003
        },
        "TrainerController.start_learning": {
            "total": 2451.9509655,
            "count": 1,
            "self": 1.930621599999995,
            "children": {
                "TrainerController._reset_env": {
                    "total": 28.462724,
                    "count": 1,
                    "self": 28.462724
                },
                "TrainerController.advance": {
                    "total": 2419.7958552000005,
                    "count": 90202,
                    "self": 1.9286107000029915,
                    "children": {
                        "env_step": {
                            "total": 2087.4152907999774,
                            "count": 90202,
                            "self": 1336.7958636999938,
                            "children": {
                                "SubprocessEnvManager._take_step": {
                                    "total": 749.4832774000039,
                                    "count": 90202,
                                    "self": 13.58066140001904,
                                    "children": {
                                        "TorchPolicy.evaluate": {
                                            "total": 735.9026159999848,
                                            "count": 180022,
                                            "self": 335.85617760001753,
                                            "children": {
                                                "TorchPolicy.sample_actions": {
                                                    "total": 400.0464383999673,
                                                    "count": 180022,
                                                    "self": 400.0464383999673
                                                }
                                            }
                                        }
                                    }
                                },
                                "workers": {
                                    "total": 1.13614969997964,
                                    "count": 90201,
                                    "self": 0.0,
                                    "children": {
                                        "worker_root": {
                                            "total": 2434.566759300026,
                                            "count": 90201,
                                            "is_parallel": true,
                                            "self": 1204.8879187000218,
                                            "children": {
                                                "steps_from_proto": {
                                                    "total": 0.004240899999999215,
                                                    "count": 2,
                                                    "is_parallel": true,
                                                    "self": 0.0013302000000017244,
                                                    "children": {
                                                        "_process_rank_one_or_two_observation": {
                                                            "total": 0.0029106999999974903,
                                                            "count": 4,
                                                            "is_parallel": true,
                                                            "self": 0.0029106999999974903
                                                        }
                                                    }
                                                },
                                                "UnityEnvironment.step": {
                                                    "total": 1229.6745997000044,
                                                    "count": 90201,
                                                    "is_parallel": true,
                                                    "self": 9.259842699980936,
                                                    "children": {
                                                        "UnityEnvironment._generate_step_input": {
                                                            "total": 9.06260589999345,
                                                            "count": 90201,
                                                            "is_parallel": true,
                                                            "self": 9.06260589999345
                                                        },
                                                        "communicator.exchange": {
                                                            "total": 1174.331734100012,
                                                            "count": 90201,
                                                            "is_parallel": true,
                                                            "self": 1174.331734100012
                                                        },
                                                        "steps_from_proto": {
                                                            "total": 37.02041700001789,
                                                            "count": 180402,
                                                            "is_parallel": true,
                                                            "self": 23.56079990008194,
                                                            "children": {
                                                                "_process_rank_one_or_two_observation": {
                                                                    "total": 13.459617099935954,
                                                                    "count": 360804,
                                                                    "is_parallel": true,
                                                                    "self": 13.459617099935954
                                                                }
                                                            }
                                                        }
                                                    }
                                                }
                                            }
                                        }
                                    }
                                }
                            }
                        },
                        "trainer_advance": {
                            "total": 330.45195370002,
                            "count": 90201,
                            "self": 6.413558700005183,
                            "children": {
                                "process_trajectory": {
                                    "total": 7.593854900016268,
                                    "count": 90201,
                                    "self": 7.593854900016268
                                },
                                "_update_policy": {
                                    "total": 316.44454009999856,
                                    "count": 731,
                                    "self": 17.920067499988875,
                                    "children": {
                                        "TorchPPOOptimizer.update": {
                                            "total": 298.5244726000097,
                                            "count": 25326,
                                            "self": 298.5244726000097
                                        }
                                    }
                                }
                            }
                        }
                    }
                },
                "trainer_threads": {
                    "total": 9.000000318337698e-07,
                    "count": 1,
                    "self": 9.000000318337698e-07
                },
                "TrainerController._save_models": {
                    "total": 1.7617637999996987,
                    "count": 1,
                    "self": 0.005466699999487901,
                    "children": {
                        "RLTrainer._checkpoint": {
                            "total": 1.7562971000002108,
                            "count": 1,
                            "self": 1.7562971000002108
                        }
                    }
                }
            }
        }
    }
}